<?xml version="1.0" encoding="utf-8"?>
<!-- Generator: Adobe Illustrator 24.1.2, SVG Export Plug-In . SVG Version: 6.00 Build 0)  -->
<svg version="1.1" xmlns="http://www.w3.org/2000/svg" xmlns:xlink="http://www.w3.org/1999/xlink" x="0px" y="0px"
	 viewBox="0 0 512 512" style="enable-background:new 0 0 512 512;" xml:space="preserve">
<style type="text/css">
	.st0{fill:#FFFFFF;}
	.st1{fill:none;}
</style>
<g id="note">
	<g>
		<path class="st0" d="M280.66,212.34L177.01,0h-6.67l104.93,214.98c0.82,1.68,0.94,3.57,0.33,5.34c-0.61,1.77-1.87,3.2-3.55,4.02
			L93.14,311.66c-1.68,0.82-3.58,0.94-5.34,0.33c-1.77-0.61-3.2-1.87-4.02-3.55L0,136.79v13.68l78.39,160.6
			c1.52,3.12,4.17,5.46,7.45,6.59c1.39,0.48,2.82,0.72,4.24,0.72c1.95,0,3.89-0.45,5.69-1.33l178.91-87.32
			c3.12-1.52,5.46-4.17,6.59-7.46C282.4,218.99,282.18,215.46,280.66,212.34z M119.3,0L0,58.22v6.68L132.97,0H119.3z"/>
		<polygon class="st0" points="73.2,64.95 0.27,100.55 0,100 -2.83,94.21 0,92.83 70.1,58.61 		"/>
		
			<rect x="-2.2" y="71.33" transform="matrix(0.8987 -0.4386 0.4386 0.8987 -24.0084 45.7888)" class="st0" width="178.59" height="7.06"/>
		
			<rect x="5.89" y="87.91" transform="matrix(0.8987 -0.4386 0.4386 0.8987 -30.4625 51.0201)" class="st0" width="178.59" height="7.06"/>
		
			<rect x="13.99" y="104.49" transform="matrix(0.8987 -0.4386 0.4386 0.8987 -36.9166 56.2513)" class="st0" width="178.59" height="7.06"/>
		
			<rect x="26.06" y="138.29" transform="matrix(0.8987 -0.4386 0.4386 0.8987 -54.492 47.7615)" class="st0" width="100.13" height="7.06"/>
		
			<rect x="30.18" y="137.66" transform="matrix(0.8987 -0.4386 0.4386 0.8987 -49.8247 66.7138)" class="st0" width="178.59" height="7.06"/>
		
			<rect x="38.27" y="154.25" transform="matrix(0.8987 -0.4386 0.4386 0.8987 -56.2788 71.9451)" class="st0" width="178.59" height="7.06"/>
		
			<rect x="46.37" y="170.83" transform="matrix(0.8987 -0.4386 0.4386 0.8987 -62.7329 77.1763)" class="st0" width="178.59" height="7.06"/>
		
			<rect x="57.35" y="200.17" transform="matrix(0.8987 -0.4386 0.4386 0.8987 -77.4321 72.2352)" class="st0" width="120.54" height="7.06"/>
	</g>
	<g>
		<path class="st0" d="M489.95,75.66L512,64.9v-6.68l-24.68,12.05c-3.12,1.52-5.46,4.17-6.59,7.46c-1.13,3.28-0.91,6.81,0.61,9.93
			L512,150.47v-13.68l-25.27-51.77c-0.82-1.68-0.94-3.57-0.33-5.34C487.01,77.91,488.27,76.48,489.95,75.66z"/>
		<polygon class="st0" points="512,92.83 512,100 509.17,94.21 		"/>
	</g>
	<g>
		<path class="st0" d="M171.61,500.93c-1.52-3.12-4.17-5.46-7.45-6.59c-3.29-1.13-6.81-0.92-9.93,0.61L119.3,512h13.67l23.89-11.66
			c0.97-0.48,2.01-0.72,3.06-0.72c0.77,0,1.54,0.13,2.28,0.39c1.77,0.61,3.2,1.87,4.02,3.55l4.12,8.44h6.67L171.61,500.93z"/>
	</g>
</g>
<g id="pencil">
	<g>
		<path class="st0" d="M386.41,12.01c2.08,0.73,3.18,3.02,2.46,5.1l-61.48,175.85c-0.73,2.08-1.38,3.82-1.45,3.88
			c-0.07,0.06-1.03,0.88-2.12,1.83c-1.1,0.95-3.36,2.89-5.02,4.33l-0.27,0.23c-1.67,1.44-3.37,0.84-3.78-1.32l-0.07-0.35
			c-0.41-2.16-0.97-5.09-1.24-6.52c-0.27-1.42-0.51-2.66-0.52-2.76c-0.02-0.09,0.56-1.87,1.29-3.95L375.68,12.5
			c0.73-2.08,3.02-3.18,5.1-2.46L386.41,12.01z"/>
	</g>
	<g>
		<path class="st0" d="M12.63,334.39c1.21-1.84,3.71-2.35,5.54-1.13l155.48,102.62c1.84,1.21,3.37,2.27,3.41,2.35s0.6,1.21,1.25,2.5
			c0.65,1.29,1.98,3.96,2.97,5.93l0.16,0.32c0.98,1.97-0.01,3.47-2.2,3.34l-0.36-0.02c-2.2-0.13-5.18-0.31-6.62-0.39
			c-1.45-0.08-2.71-0.16-2.8-0.17c-0.09-0.01-1.67-1-3.51-2.22L10.48,344.91c-1.84-1.21-2.35-3.71-1.13-5.54L12.63,334.39z"/>
	</g>
	<rect class="st1" width="512" height="512"/>
	<path class="st1" d="M512,0v512H0V100l-2.83-5.79L0,92.83V0h132.97l23.89-11.66c0.98-0.48,2.03-0.71,3.06-0.71
		c2.59,0,5.09,1.45,6.3,3.93L170.34,0H512z"/>
	<path class="st1" d="M170.34,0l-4.12-8.44c-1.21-2.48-3.71-3.93-6.3-3.93c-1.03,0-2.08,0.23-3.06,0.71L132.97,0H0v92.83l-2.83,1.38
		L0,100v412h119.3l34.93-17.05c3.12-1.53,6.64-1.74,9.93-0.61c3.28,1.13,5.93,3.47,7.45,6.59l5.4,11.07H512V0H170.34z M170.34,0
		l-4.12-8.44c-1.21-2.48-3.71-3.93-6.3-3.93c-1.03,0-2.08,0.23-3.06,0.71L132.97,0H0v92.83l-2.83,1.38L0,100v412h512V0H170.34z
		 M275.27,214.98L170.34,0l-4.12-8.44c-1.21-2.48-3.71-3.93-6.3-3.93c-1.03,0-2.08,0.23-3.06,0.71L132.97,0H0v92.83l-2.83,1.38
		L0,100v36.79l83.78,171.65c0.82,1.68,2.25,2.94,4.02,3.55c1.76,0.61,3.66,0.49,5.34-0.33l178.91-87.32
		c1.68-0.82,2.94-2.25,3.55-4.02C276.21,218.55,276.09,216.66,275.27,214.98z"/>
</g>
<g id="cloud">
	<path class="st0" d="M467.81,300.04c-7.73-1.7-15.49-1.95-22.67-0.75c0.2-15.99-15.34-31.42-37.55-36.33
		c-17.46-3.85-34.74,0.04-44.23,9.72c-5.71-4.49-12.6-7.71-20.1-9.36c-23.01-5.09-45.11,6.11-49.27,24.95
		c-4.16,18.83,11.17,38.3,34.17,43.38c0.94,0.21,1.9,0.39,2.87,0.55c5.61,12.82,25.97,24.99,51.68,30.67
		c9.08,2,17.99,2.98,26.17,2.98c13.51,0,25.03-2.66,31.99-7.72c4.1,1.93,8.51,3.43,13.12,4.45c4.54,1,9.04,1.48,13.37,1.48
		c18.8,0,34.48-9.01,37.58-23.02C508.75,323.8,492.09,305.41,467.81,300.04z M499.08,339.74c-3.09,14.01-22.74,21.63-43.79,16.98
		c-4.78-1.06-9.3-2.67-13.43-4.79l-1.82-0.93l-1.53,1.34c-8.95,7.86-31.36,9.78-54.5,4.67c-24.13-5.33-44.3-17.3-47.96-28.46
		l-0.59-1.8l-1.88-0.24c-1.39-0.18-2.78-0.42-4.12-0.72c-19.78-4.37-33.06-20.62-29.62-36.23c2.87-12.97,16.4-21.48,32.24-21.48
		c3.22,0,6.54,0.36,9.88,1.09c7.55,1.67,14.36,5.1,19.71,9.92l2.39,2.15l1.98-2.53c7.48-9.58,23.66-13.56,40.25-9.89
		c20.67,4.57,35.25,19.67,32.51,33.68l-0.92,4.66l4.6-1.18c7.4-1.89,15.71-1.92,24.03-0.08
		C487.56,310.55,502.17,325.74,499.08,339.74z"/>
	<path class="st0" d="M346.75,349.65c-2.29-2.65-5.61-4.53-9.36-5.27c-1.64-0.32-3.29-0.41-4.89-0.28
		c-1.09-5.06-5.75-9.37-12.07-10.62c-4.93-0.98-9.85,0.21-13.15,3c-1.51-0.94-3.2-1.6-5-1.96c-3.66-0.73-7.38-0.09-10.46,1.78
		c-3.17,1.93-5.29,4.92-5.99,8.43c-0.69,3.52,0.14,7.09,2.33,10.08c2.09,2.84,5.18,4.81,8.74,5.57c2.36,4.18,8.32,7.74,15.62,9.18
		c2.22,0.44,4.4,0.65,6.47,0.65c4.27,0,8.05-0.91,10.68-2.62c0.95,0.36,1.94,0.65,2.96,0.85c3.76,0.74,7.54,0.28,10.67-1.31
		c1.68-0.85,3.08-1.98,4.13-3.31c1.06-1.32,1.79-2.86,2.12-4.54C350.21,355.93,349.21,352.51,346.75,349.65z M343.66,358.12
		c-0.3,1.5-1.39,2.8-3.08,3.66c-1.93,0.98-4.34,1.26-6.78,0.78c-1.14-0.23-2.2-0.6-3.17-1.11l-2-1.06l-1.56,1.63
		c-1.69,1.75-6.96,2.92-13.39,1.65c-6.52-1.28-11.14-4.49-11.83-6.84l-0.57-1.96l-2.03-0.18c-0.31-0.03-0.62-0.08-0.93-0.14
		c-2.19-0.43-4.08-1.6-5.32-3.3c-1.19-1.61-1.64-3.51-1.28-5.35c0.36-1.84,1.51-3.43,3.22-4.47c1.3-0.79,2.81-1.2,4.38-1.2
		c0.59,0,1.19,0.06,1.79,0.18c1.71,0.33,3.24,1.12,4.43,2.28l2.58,2.48l2-2.97c1.62-2.41,5.38-3.58,9.15-2.83
		c4.68,0.92,8.01,4.44,7.41,7.84l-0.88,4.98l4.79-1.62c1.73-0.59,3.67-0.69,5.63-0.3c2.45,0.48,4.57,1.65,5.98,3.3
		c1.01,1.17,1.54,2.46,1.54,3.71C343.74,357.56,343.72,357.84,343.66,358.12z"/>
	<path class="st0" d="M302.36,371.08c-0.45-0.09-0.91-0.15-1.36-0.16c-0.86-3.2-3.37-5.78-6.68-6.43c-2.59-0.52-5.21,0.22-7.2,1.89
		c-0.58-0.28-1.19-0.49-1.83-0.62c-4.58-0.9-9.14,2.66-10.18,7.94c-0.49,2.45-0.16,4.92,0.92,6.98c0.99,1.88,2.55,3.27,4.39,3.93
		c1.39,2.81,4.52,5.02,8.4,5.79c0.95,0.18,1.89,0.27,2.8,0.27c2.46,0,4.72-0.65,6.44-1.86c0.25,0.07,0.5,0.14,0.76,0.19
		c0.55,0.11,1.09,0.16,1.63,0.16c4.13,0,7.88-3.05,8.75-7.42C310.18,376.8,307.11,372.01,302.36,371.08z M303.31,380.58
		c-0.33,1.69-1.82,2.83-3.33,2.53c-0.31-0.06-0.6-0.18-0.87-0.35l-2.36-1.55l-1.69,2.27c-0.64,0.87-2.73,1.49-5.08,1.03
		c-2.69-0.53-4.18-2.09-4.33-2.97l-0.41-2.35l-2.37-0.13c-0.07-0.01-0.13-0.02-0.2-0.03c-0.7-0.14-1.13-0.77-1.32-1.14
		c-0.44-0.83-0.57-1.94-0.36-3.02c0.4-2.01,1.77-3.25,2.87-3.25c0.09,0,0.18,0.01,0.27,0.03c0.39,0.08,0.74,0.32,1.04,0.71
		l2.82,3.65l2.2-4.06c0.63-1.17,1.82-1.8,2.97-1.58c1.46,0.29,2.41,1.91,2.1,3.61l-1.08,5.92l5.38-2.7
		c0.36-0.19,0.94-0.37,1.64-0.24c1.29,0.26,2.18,1.5,2.18,2.93C303.38,380.12,303.36,380.35,303.31,380.58z"/>
</g>
</svg>
